…
prob_by_n <- results |>
  group_by(n) |> 
  summarise(prob_dup = mean(dup), .groups = "drop")

prob_by_n
```

    ## # A tibble: 49 × 2
    ##        n prob_dup
    ##    <int>    <dbl>
    ##  1     2   0.0033
    ##  2     3   0.0079
    ##  3     4   0.0158
    ##  4     5   0.0248
    ##  5     6   0.0387
    ##  6     7   0.057 
    ##  7     8   0.0749
    ##  8     9   0.0885
    ##  9    10   0.116 
    ## 10    11   0.140 
    ## # ℹ 39 more rows
…
